Notes on Statistical Rethinking
…
filter(pos, step %in% c(4, 8, 16))

## Source: local data frame [3,000 x 4]
## Groups: step [3]
## 
##             y  step   .id  normdens
##         <dbl> <int> <int>     <dbl>
## 1   0.4314076     4     1 0.3224715
## 2  -2.1267231     8     1 0.1051799
## 3  -0.2076663    16     1 0.1724441
## 4   0.6986102     4     2 0.2826843
## 5  -0.9080546     8     2 0.2185465
## 6  -1.1683562    16     2 0.1551937
## 7   0.3807319     4     3 0.3285293
## 8  -0.3254984     8     3 0.2504019
## 9  -1.0669313    16     3 0.1582159
## 10  1.6699415     4     4 0.1089021
## # ... with 2,990 more rows
…
